timestamp,count
2016-07-30 22:03:58.786366,1.0
2016-07-30 22:03:59.829632,1.0
2016-07-30 22:04:00.860042,1.0
2016-07-30 22:04:01.888825,1.0
2016-07-30 22:04:02.924152,1.0
2016-07-30 22:09:29.929500,1.0
2016-07-30 22:09:30.976495,1.0
2016-07-30 22:09:32.005254,1.0
2016-07-30 22:09:33.036657,1.0
2016-07-30 22:09:34.065260,1.0
2016-07-30 22:15:03.172551,1.0
2016-07-30 22:15:04.207850,1.0
2016-07-30 22:15:05.237696,1.0
2016-07-30 22:15:06.268239,1.0
