timestamp,count
2016-07-30 22:03:58.786366,1.0
2016-07-30 22:03:59.829632,1.0
2016-07-30 22:04:00.860042,1.0
2016-07-30 22:04:01.888825,1.0
2016-07-30 22:04:02.924152,1.0
2016-07-30 22:09:29.929500,1.0
2016-07-30 22:09:30.976495,1.0
2016-07-30 22:09:32.005254,1.0
2016-07-30 22:09:33.036657,1.0
2016-07-30 22:09:34.065260,1.0
2016-07-30 22:15:03.172551,1.0
2016-07-30 22:15:04.207850,1.0
2016-07-30 22:15:05.237696,1.0
2016-07-30 22:15:06.268239,1.0
2016-07-30 22:18:40.326593,1.0
2016-07-30 22:18:41.368366,1.0
2016-07-30 22:18:42.402973,1.0
2016-07-30 22:18:43.433631,1.0
2016-07-30 22:18:44.465096,1.0
2016-07-30 22:19:17.264061,1.0
2016-07-30 22:19:18.302447,1.0
2016-07-30 22:22:51.285638,1.0
2016-07-30 22:22:52.327807,1.0
2016-07-30 22:22:53.363417,1.0
2016-07-30 22:22:54.403115,1.0
2016-07-30 22:22:55.439957,1.0
2016-07-30 22:22:56.478205,1.0
2016-07-30 22:22:56.936411,1.0
2016-07-30 22:22:57.518637,1.0
2016-07-30 22:22:57.981846,1.0
2016-07-30 22:23:20.938706,1.0
2016-07-30 22:23:21.982597,1.0
2016-07-30 22:23:23.018385,1.0
2016-07-30 22:23:24.052151,1.0
2016-07-30 22:23:25.085665,1.0
